<svg width="21" height="21" viewBox="0 0 21 21" fill="none" xmlns="http://www.w3.org/2000/svg">
<path fill-rule="evenodd" clip-rule="evenodd" d="M10.5276 19.9017H10.5237C8.9314 19.9012 7.36679 19.5016 5.97716 18.7437L0.933594 20.0667L2.28334 15.1366C1.45075 13.6937 1.01265 12.057 1.01336 10.3802C1.01545 5.13449 5.28347 0.866699 10.5276 0.866699C13.0727 0.867798 15.4615 1.85861 17.2577 3.65697C19.054 5.45525 20.0427 7.84559 20.0417 10.3877C20.0396 15.6322 15.7733 19.8996 10.5276 19.9017ZM6.21084 17.0213L6.4996 17.1927C7.71372 17.9132 9.10546 18.2944 10.5244 18.2949H10.5276C14.8862 18.2949 18.4335 14.7475 18.4353 10.3872C18.4361 8.27417 17.6144 6.28742 16.1214 4.79269C14.6284 3.29796 12.6429 2.47439 10.5308 2.47366C6.16888 2.47366 2.62144 6.02077 2.61971 10.3807C2.6191 11.8749 3.03717 13.3301 3.82875 14.5891L4.01677 14.8883L3.21792 17.8064L6.21084 17.0213ZM14.9952 12.4361C15.161 12.5162 15.273 12.5703 15.3208 12.6501C15.3802 12.7492 15.3802 13.2252 15.1822 13.7806C14.984 14.3359 14.0343 14.8427 13.5775 14.9109C13.168 14.9722 12.6497 14.9977 12.0802 14.8167C11.7349 14.7072 11.2922 14.5609 10.725 14.316C8.49637 13.3536 6.99028 11.1936 6.70563 10.7854C6.68569 10.7568 6.67174 10.7368 6.66396 10.7264L6.66205 10.7238C6.53624 10.556 5.69327 9.43126 5.69327 8.26722C5.69327 7.17219 6.23116 6.59824 6.47875 6.33404C6.49572 6.31594 6.51132 6.2993 6.52529 6.28404C6.74319 6.04604 7.00075 5.98654 7.15922 5.98654C7.31768 5.98654 7.47634 5.988 7.61484 5.99496C7.63194 5.99581 7.64971 5.99571 7.66809 5.9956C7.80662 5.99479 7.97933 5.99378 8.14971 6.40304C8.21526 6.56053 8.31117 6.79402 8.41232 7.04029C8.61688 7.5383 8.8429 8.08854 8.88266 8.16817C8.94211 8.28717 8.98172 8.42594 8.90248 8.58467C8.89058 8.60847 8.87958 8.63093 8.86907 8.65239C8.80956 8.77389 8.76578 8.86327 8.66476 8.98122C8.62504 9.02759 8.58399 9.07759 8.54294 9.12758C8.46115 9.22718 8.37938 9.32677 8.30817 9.39771C8.18916 9.51626 8.06527 9.64487 8.20394 9.88287C8.34261 10.1209 8.81971 10.8993 9.52642 11.5297C10.2861 12.2073 10.9464 12.4937 11.281 12.6389C11.3464 12.6672 11.3993 12.6902 11.4382 12.7096C11.6758 12.8286 11.8145 12.8087 11.9532 12.6501C12.0919 12.4915 12.5474 11.9559 12.7059 11.718C12.8643 11.4801 13.0229 11.5197 13.2408 11.599C13.4587 11.6784 14.6275 12.2534 14.8652 12.3724C14.9116 12.3957 14.955 12.4166 14.9952 12.4361Z" fill="#404C77"/>
</svg>
